{
  "name": "nback",
  "version": "0.0.1",
  "description": "",
  "author": "",
  "private": true,
  "license": "UNLICENSED",
  "scripts": {
    "start": "node main"
  },
  "dependencies": {},
  "devDependencies": {}
}
